Final Project
…
resOrdered$SYMBOL <- row.names(resOrdered)
resOrdered <- as.tibble(resOrdered)

## Warning: `as.tibble()` is deprecated as of tibble 2.0.0.
## Please use `as_tibble()` instead.
## The signature and semantics have changed, see `?as_tibble`.
## This warning is displayed once every 8 hours.
## Call `lifecycle::last_warnings()` to see where this warning was generated.

res_ordered_subset <- resOrdered %>% 
  dplyr::select(SYMBOL, stat)
res_ordered_subset

## # A tibble: 22,751 x 2
##    SYMBOL      stat
##    <chr>      <dbl>
##  1 NR4A2       4.67
##  2 BTG2        4.64
##  3 CITED2      4.58
##  4 JUNB        4.50
##  5 SCRT2       4.47
##  6 H4C15       4.47
##  7 H4C14       4.32
##  8 DACT3       4.23
##  9 ARL2-SNX15  4.14
## 10 PTMS        4.10
## # ... with 22,741 more rows
…
